{
  "lookup": {
    "eJyLrq6NBQAEOAGx": "action_listen",
    "eJyLrq7VUaguKEoti09MLsnMz7NSqIYw4vMSc1OtFKCcnMziktQ8oNrS4tQioJrMPCC3xEohvSg1taS2NhYA6dwbhQ==": "utter_greet",
    "eJyLrq7VUaguKEoti09MLsnMz7NSqIYw4vMSc1OtFKCcnMziktQ8oNrS4tQioJrMPCC3xEohvSg1taSWgBmlJSWpRfEQpZSYUJlfWgQWwGlKLABUkE9h": "action_listen",
    "eJyLrq7VUaguKEoti09MLsnMz7NSqIYw4vMSc1OtFKCcnMziktQ8oNrS4tQioJrMPCC3xEohvSg1taSWgBmlJSWpRfEQpZSYUJlfWgQWINMUAn7JzEvLL8qFWFAbCwBdqGup": "utter_greet_name",
    "eJyLrq7VUaguKEoti09MLsnMz7NSqIYw4vMSc1OtFKCcnMziktQ8oNrS4tQioJrMPCC3xEohvSg1taSWgBmlJSWpRfEQpZSYUJlfWgQWINMUAn7JzEvLL8qFWEC8j3A4CMWwWAAzCokv": "action_listen",
    "eJylj90JgDAMhFfpAE7QVURK0SgFm0hMBSnubrW+Sv15y4Xju7s6bpWKE8NibCuOUKuYD4PWg1aXGN0sgMkbZuDkcZikaDUwgGwFRhABNtn6h7BS4PPxkVLY4rAn9jng+aKbQi9ghVqeqDuibNrX7E0UpQ0=": "utter_happy",
    "eJyLrq7VUaguKEoti09MLsnMz7NSqIYw4vMSc1OtFKCcnMziktQ8oNrS4tQioJrMPCC3xEohvSg1taSWgBmlJSWpRfEQpZSYUJlfWgQWINMUAn7JzEvLL8qFWEC8j3A4iATDCDgrNz8/BWRVIpGhlJFYUFCJ35hYANrtwDQ=": "action_listen",
    "eJyLrq7VUaguKEoti09MLsnMz7NSqIYw4vMSc1OtFKCcnMziktQ8oNrS4tQioJrMPCC3xEohvSg1taSWgBmlJSWpRfEQpeSZQMAVufn5KfGleRmJBQWVtbWxAN75UWc=": "utter_cheer_up",
    "eJydjlEKgCAQRK/iATqBV4lYxJYUchVdgxDv3oL9G/0MM/B4zNr6olrKeIGx7CNp1UYBMgG1esfpCyMJWwtmYTzJZK2OjMh94qjMmGGg/wyTFyHGHSo5k9L97Yx1KFnTzLU9XiFuqQ==": "utter_did_that_help",
    "eJytjlEKgCAQRK/iATqBV4lYRIcUahVbg5DunlD/RvQzzMDjMWM9B1VTxk7GSoisVb0LsVmh1TOWsAm4sWVDbkzgNkWrOQNydhxFBJlu9Juh82KN0VFhb1I63p2xHi1L+sPlgiPxRshj6QqnC1EGjek=": "action_listen",
    "eJytj9EJwzAMRFfxAJ3Aq4QgRKzUglg2ilwoxrvXkP67tP0Rd/B4nJbWb64VpQfgZpzFu3YFEEzk3bscfBrJYOtJOhiWUc27uxJZnziqGSlc6HeGyYqUc4AqEUt5fjZmizRuLf9wBQ5gEQ0iHT8KJ3/ivrOm3tcXH2yoGw==": "utter_happy",
    "eJytj0EKAyEMRa/iAXoCr1JKCGOmBsYomVgoMnevYLfFoe0m5MPn5eXajotrRekBuBhn8a6NBQQTefcOG+9G0rt1J+0dlh7Nu7sS2TFhVDNSGNXvCBOLlHOAKhFLeZ6TWSL1Wcs/WIEDWESDSNuPwMmfuK6s6ZzVuPcRcXsBe37Blg==": "action_listen",
    "eJytj1EKwyAQRK/iAXoCr1LCInGIQrKKWQNFvHsX7L+h7c8yA4/H7LP1h2m54CK3SkxsTRuB2B2w5lP2eApY2XqiKBNZq1izFUD6xFFFUGig3xkmK46UPFUOLufXvTFrgN6a/+Hy0ZMEJxSw/yic/OnBqlje0A2nVg==": "utter_goodbye",
    "eJytj9EJwzAMRFfxAJ3Aq4Qg3PiIDYlsHLkQTHavIP0NDm1/hA6Op6ehHQ/TcsGL3CQxsTXtXIjdCms+YYmbgLVbNxTtRNYo1swFkKPDqCIodFa/I3Qs1pQ8VQ4u5/2ezBSgs+Z/sHz0JMEJBSw/Ajt/evBNp1mPPndcIcY3+fTA0w==": "action_listen"
  }
}